{
  "name": "OLXParser API",
  "version": "1.0.0",
  "description": "OLX Parser API Backend REST description",
  "title": "OLX Parser API Backend REST description",
  "sampleUrl": false,
  "defaultVersion": "0.0.0",
  "apidoc": "0.3.0",
  "generator": {
    "name": "apidoc",
    "time": "2020-08-14T13:15:41.200Z",
    "url": "http://apidocjs.com",
    "version": "0.20.0"
  }
}
